....................
----------------------------------------------------------------------
Ran 20 tests in 0.860s

OK
Name             Stmts   Miss Branch BrPart  Cover   Missing
------------------------------------------------------------
Collatz.py          55      0     32      0   100%
TestCollatz.py      81      0      0      0   100%
------------------------------------------------------------
TOTAL              136      0     32      0   100%
